{
    "$schema": "http://json-schema.org/draft-06/schema#",
    "$ref": "#/definitions/MichelsonLanguage",
    "definitions": {
        "MichelsonLanguage": {
            "type": "object",
            "additionalProperties": false,
            "properties": {
                "categories": {
                    "$ref": "#/definitions/Categories"
                },
                "instructions": {
                    "$ref": "#/definitions/Instructions"
                },
                "types": {
                    "$ref": "#/definitions/Types"
                }
            },
            "required": [
                "categories",
                "instructions"
            ],
            "title": "MichelsonLanguage"
        },
        "Categories": {
            "type": "object",
            "additionalProperties": true,
            "title": "Categories",
            "patternProperties": {
                ".*": {
                    "type": "string"
                }
            }
        },
        "Instructions": {
            "type": "object",
            "additionalProperties": true,
            "title": "Instruction",
            "patternProperties": {
                ".*": { "$ref": "#/definitions/Instruction" }
            }
        },
        "Types": {
            "type": "object",
            "additionalProperties": true,
            "title": "Types",
            "patternProperties": {
                ".*": { "$ref": "#/definitions/Type" }
            }
        },
        "Instruction": {
            "type": "object",
            "additionalProperties": false,
            "properties" : {
                "category": { "type" : "string" },
                "documentation_short": { "type" : "string" },
                "documentation": { "type": "string" },
                "stack_effect": { "type": "string" },
                "examples": {
                    "type": "array",
                    "items": {
                        "$ref": "#/definitions/Example"
                    }
                }
            },
            "required": [
                "category",
                "documentation_short"
            ]
        },
        "Example": {
            "type": "object",
            "additionalProperties": false,
            "properties": {
                "name": {"type": "string"},
                "description": {"type": "string"},
                "path": {"type": "string"},
                "ranges": {"type": "string"},
                "input": {"type": "string"},
                "initial_storage": {"type": "string"},
                "final_storage": {"type": "string"},
                "final_storage_pre": {"type": "string"},
                "final_storage_post": {"type": "string"},
                "hide_final_storage": {"type": "boolean"}
            },
            "required": [
                "description",
                "final_storage",
                "initial_storage",
                "input",
                "path"
            ]
        },
        "Type": {
            "type": "object",
            "additionalProperties": false,
            "properties": {
                "documentation_short": { "type": "string" },
                "documentation": { "type": "string" },
                "comparable": { "type": "boolean" },
                "passable": { "type": "boolean" },
                "packable": { "type": "boolean" },
                "pushable": { "type": "boolean" },
                "unpackable": { "type": "boolean" },
                "storable": { "type": "boolean" },
                "big_map_value": { "type": "boolean" },
                "literal": { "type": "boolean" },
                "examples": { "type": "array" },
                "insertions": { "type": "array" }
            },
            "required": [
                "documentation_short",
                "comparable",
                "pushable",
                "passable",
                "packable",
                "storable",
                "big_map_value"
            ]
        }
    }
}
